{
  "tags": [{
    "name": "has_ever_been_subscriber",
    "count": 97818
  }, {
    "name": "retention",
    "count": 68426
  }, {
    "name": "cancellation",
    "count": 62410
  }, {
    "name": "payment",
    "count": 60272
  }, {
    "name": "active_archive_purchase",
    "count": 47772
  }, {
    "name": "pmp_subscriber",
    "count": 38023
  }, {
    "name": "cancel_subscription",
    "count": 36556
  }, {
    "name": "hvt",
    "count": 35917
  }, {
    "name": "no_scribd_user",
    "count": 35187
  }, {
    "name": "account",
    "count": 34453
  }, {
    "name": "recurring_subscription",
    "count": 31587
  }, {
    "name": "always_unbabel",
    "count": 29980
  }, {
    "name": "guided_view_eligible",
    "count": 28394
  }, {
    "name": "unbabeled",
    "count": 26560
  }, {
    "name": "unbabel_reply",
    "count": 26469
  }, {
    "name": "unbabel_en",
    "count": 26469
  }, {
    "name": "via_support",
    "count": 25452
  }, {
    "name": "refund",
    "count": 24973
  }, {
    "name": "solvvy",
    "count": 22344
  }, {
    "name": "premium",
    "count": 18192
  }, {
    "name": "htt",
    "count": 15146
  }, {
    "name": "reminder_sent",
    "count": 14340
  }, {
    "name": "platform_website",
    "count": 12558
  }, {
    "name": "audiobooks",
    "count": 11389
  }, {
    "name": "auto_replied",
    "count": 11082
  }, {
    "name": "auto_feedback",
    "count": 10925
  }, {
    "name": "closed_by_merge",
    "count": 10219
  }, {
    "name": "retention_in_premium",
    "count": 10027
  }, {
    "name": "via_hello",
    "count": 9706
  }, {
    "name": "spanish_support",
    "count": 8542
  }, {
    "name": "standard",
    "count": 8139
  }, {
    "name": "web_widget",
    "count": 6624
  }, {
    "name": "to_be_synced",
    "count": 6362
  }, {
    "name": "paypal_no",
    "count": 6209
  }, {
    "name": "delayed_response",
    "count": 5820
  }, {
    "name": "platform_ios",
    "count": 5809
  }, {
    "name": "subscription_cancellation",
    "count": 5437
  }, {
    "name": "cancel_v2017",
    "count": 5436
  }, {
    "name": "cancellation_technical",
    "count": 5436
  }, {
    "name": "web-1777",
    "count": 5435
  }, {
    "name": "no_csat",
    "count": 5208
  }, {
    "name": "subscription_not_found",
    "count": 4903
  }, {
    "name": "dont_auto_reply",
    "count": 4837
  }, {
    "name": "no_agent_reply_alerted",
    "count": 4484
  }, {
    "name": "cap",
    "count": 4089
  }, {
    "name": "copyright",
    "count": 3848
  }, {
    "name": "via_copyright",
    "count": 3469
  }, {
    "name": "language_en",
    "count": 3371
  }, {
    "name": "retention_in_standard",
    "count": 3298
  }, {
    "name": "content_ops",
    "count": 3275
  }, {
    "name": "archive_subscriber",
    "count": 3191
  }, {
    "name": "solvvy_mobile",
    "count": 3100
  }, {
    "name": "silence",
    "count": 3013
  }, {
    "name": "mobile_apps",
    "count": 2741
  }, {
    "name": "refund_not_cancelled",
    "count": 2735
  }, {
    "name": "dmca_general",
    "count": 2700
  }, {
    "name": "abuse_privacy",
    "count": 2649
  }, {
    "name": "conversion",
    "count": 2647
  }, {
    "name": "paypal_yes",
    "count": 2646
  }, {
    "name": "docid_unknown",
    "count": 2361
  }, {
    "name": "dmca_removal",
    "count": 2361
  }, {
    "name": "partner",
    "count": 2353
  }, {
    "name": "delete_account",
    "count": 2285
  }, {
    "name": "platform_android",
    "count": 2271
  }, {
    "name": "password_reset",
    "count": 2183
  }, {
    "name": "modstandard_in_standard",
    "count": 2156
  }, {
    "name": "facebook_messenger",
    "count": 2058
  }, {
    "name": "trust_safety",
    "count": 2032
  }, {
    "name": "siftscience_review",
    "count": 2002
  }, {
    "name": "fraud_review",
    "count": 2002
  }, {
    "name": "no_csat_alerted",
    "count": 1658
  }, {
    "name": "privacy_general",
    "count": 1575
  }, {
    "name": "privacy_erasure",
    "count": 1570
  }, {
    "name": "co_autoclose",
    "count": 1448
  }, {
    "name": "unnecessary_notification",
    "count": 1432
  }, {
    "name": "itunes_subscription",
    "count": 1252
  }, {
    "name": "concierge",
    "count": 1245
  }, {
    "name": "premium_in_standard",
    "count": 1165
  }, {
    "name": "standard_actionable",
    "count": 1159
  }, {
    "name": "second_auto_reply",
    "count": 1139
  }, {
    "name": "scribd_api",
    "count": 1133
  }, {
    "name": "triage_nonactionable",
    "count": 1124
  }, {
    "name": "privacy_erasure_ugc",
    "count": 1114
  }, {
    "name": "merge_accounts",
    "count": 1040
  }, {
    "name": "csat_alerted",
    "count": 1019
  }, {
    "name": "user_not_found_ben",
    "count": 970
  }, {
    "name": "frontline_first_touch",
    "count": 929
  }, {
    "name": "subscription_paused",
    "count": 927
  }, {
    "name": "troubleshooting",
    "count": 922
  }, {
    "name": "express",
    "count": 922
  }, {
    "name": "do_grouping",
    "count": 893
  }, {
    "name": "volume_uploader",
    "count": 871
  }, {
    "name": "analytics",
    "count": 847
  }, {
    "name": "compromised_account",
    "count": 827
  }, {
    "name": "throttled",
    "count": 786
  }, {
    "name": "android_app_feedback",
    "count": 725
  }, {
    "name": "slack_test",
    "count": 717
  }, {
    "name": "request_first_six",
    "count": 717
  }, {
    "name": "csat_chat_alerted",
    "count": 717
  }, {
    "name": "language_es",
    "count": 704
}, {
    "name": "ticket_bankruptcy",
    "count": 701
  }, {
    "name": "throttling_first_reply",
    "count": 686
  }, {
    "name": "app_store_review",
    "count": 674
  }, {
    "name": "jira_escalated",
    "count": 648
  }, {
    "name": "fq",
    "count": 573
  }, {
    "name": "via_bizdev",
    "count": 523
  }, {
    "name": "invoice_request",
    "count": 519
  }, {
    "name": "movedfromcap",
    "count": 513
  }, {
    "name": "app_feedback_callout",
    "count": 513
  }, {
    "name": "reclame_aqui",
    "count": 494
  }, {
    "name": "prr",
    "count": 482
  }, {
    "name": "android_app_review",
    "count": 478
  }, {
    "name": "popular_uploader",
    "count": 477
  }, {
    "name": "gift_subscriptions",
    "count": 475
  }, {
    "name": "10.11_68",
    "count": 475
  }, {
    "name": "unsubscribe_email",
    "count": 457
  }, {
    "name": "gdpr_erasure",
    "count": 454
  }, {
    "name": "fraud_flag_needproofmacro",
    "count": 451
  }, {
    "name": "deseat_me",
    "count": 445
  }, {
    "name": "system_credit_card_redaction",
    "count": 437
  }, {
    "name": "gdpr_general",
    "count": 425
  }, {
    "name": "jira_open",
    "count": 419
  }, {
    "name": "feedback",
    "count": 414
  }, {
    "name": "prr_erasure",
    "count": 413
  }, {
    "name": "zopim_offline_message",
    "count": 389
  }, {
    "name": "dmca_reject_incomplete",
    "count": 380
  }, {
    "name": "privacy",
    "count": 363
  }, {
    "name": "5024511470401",
    "count": 363
  }, {
    "name": "via_privacy",
    "count": 362
  }, {
    "name": "compromised_account_recovered",
    "count": 354
  }, {
    "name": "accessibility",
    "count": 354
  }, {
    "name": "10.12_82",
    "count": 343
  }, {
    "name": "acquisition_in_standard",
    "count": 339
  }, {
    "name": "acquisition_in_premium",
    "count": 338
  }, {
    "name": "10.8_110",
    "count": 331
  }, {
    "name": "duplicate_subscription",
    "count": 323
  }, {
    "name": "10.9_89",
    "count": 304
  }, {
    "name": "chargeback_confirmed",
    "count": 297
  }, {
    "name": "turkey_block",
    "count": 293
  }, {
    "name": "verification_charge",
    "count": 282
  }, {
    "name": "scribd_perks",
    "count": 278
  }, {
    "name": "retention_in_cap",
    "count": 278
  }, {
    "name": "prr_erasure_complete",
    "count": 260
  }, {
    "name": "gdpr_erasure_complete",
    "count": 259
  }, {
    "name": "10.10_97",
    "count": 257
  }, {
    "name": "trust_pilot",
    "count": 229
  }, {
    "name": "escalated",
    "count": 228
  }, {
    "name": "premium_in_retention",
    "count": 226
  }, {
    "name": "search_feedback",
    "count": 224
  }, {
    "name": "feature_request",
    "count": 217
  }, {
    "name": "prr_general",
    "count": 215
  }, {
    "name": "p3_-_major",
    "count": 213
  }, {
    "name": "premium_delay_credited",
    "count": 210
  }, {
    "name": "banned",
    "count": 209
  }, {
    "name": "ios_app_review",
    "count": 196
  }, {
    "name": "faw_june_2020",
    "count": 189
  }, {
    "name": "10.12.1_2",
    "count": 186
  }, {
    "name": "not_prioritized",
    "count": 178
  }, {
    "name": "10.10.1_1",
    "count": 178
  }, {
    "name": "p4_-_tolerable",
    "count": 173
  }, {
    "name": "book/author_request",
    "count": 169
  }, {
    "name": "gdpr_reject_noteu",
    "count": 166
  }, {
    "name": "standard_in_premium",
    "count": 160
  }, {
    "name": "cc_problems",
    "count": 160
  }, {
    "name": "reminder_email_complaint",
    "count": 157
  }, {
    "name": "trust_safetycap",
    "count": 156
  }, {
    "name": "registration_email",
    "count": 153
  }, {
    "name": "unlimitedeverythingfeb2018",
    "count": 151
  }, {
    "name": "anomaly_tracking",
    "count": 143
  }, {
    "name": "ticket_unheld",
    "count": 142
  }, {
    "name": "pmp_throttling",
    "count": 142
  }, {
    "name": "langauge_en",
    "count": 139
  }, {
    "name": "ebook_loading_error",
    "count": 134
  }, {
    "name": "cap_in_standard",
    "count": 131
  }, {
    "name": "acquisition",
    "count": 131
  }, {
    "name": "publisher_application",
    "count": 130
  }, {
    "name": "force_csat",
    "count": 129
  }, {
    "name": "10.6_67",
    "count": 127
  }, {
    "name": "language_pt",
    "count": 125
  }, {
    "name": "adyen_whitelisted",
    "count": 121
  }, {
    "name": "referral_help",
    "count": 117
  }, {
    "name": "ms_escalation",
    "count": 116
  }, {
    "name": "currency_clarification",
    "count": 116
  }, {
    "name": "free_trial",
    "count": 114
  }, {
    "name": "uploader",
    "count": 110
  }, {
    "name": "on_behalf_of",
    "count": 110
  }, {
    "name": "privacy_erasure_api",
    "count": 105
  }, {
    "name": "dmca",
    "count": 105
  }, {
    "name": "has_purchased_archive",
    "count": 104
  }, {
    "name": "seller",
    "count": 98
  }, {
    "name": "language_fr",
    "count": 97
  }, {
    "name": "group_sub_inquiry",
    "count": 97
  }, {
    "name": "1011_68",
    "count": 97
  }, {
    "name": "nytbundle",
    "count": 92
  }, {
    "name": "vat_tax",
    "count": 86
  }, {
    "name": "cap_confirmation_fastly",
    "count": 84
  }, {
    "name": "109_89",
    "count": 79
  }, {
    "name": "dmca_brazil",
    "count": 78
  }, {
    "name": "dmca_incomplete",
    "count": 77
  }, {
    "name": "content_expiration",
    "count": 76
  }],
  "next_page": "https://scribd.zendesk.com/api/v2/tags.json?page=3",
  "previous_page": "https://scribd.zendesk.com/api/v2/tags.json?page=1",
  "count": 1187
}
